<?xml version="1.0" encoding="UTF-8" standalone="no"?>
<!-- Created with Inkscape (http://www.inkscape.org/) -->

<svg
   xmlns:dc="http://purl.org/dc/elements/1.1/"
   xmlns:cc="http://creativecommons.org/ns#"
   xmlns:rdf="http://www.w3.org/1999/02/22-rdf-syntax-ns#"
   xmlns:svg="http://www.w3.org/2000/svg"
   xmlns="http://www.w3.org/2000/svg"
   xmlns:sodipodi="http://sodipodi.sourceforge.net/DTD/sodipodi-0.dtd"
   xmlns:inkscape="http://www.inkscape.org/namespaces/inkscape"
   version="1.1"
   id="svg2"
   width="102.4"
   height="102.4"
   viewBox="0 0 102.4 102.4"
   sodipodi:docname="config.svg"
   inkscape:version="0.92.1 r15371">
  <metadata
     id="metadata8">
    <rdf:RDF>
      <cc:Work
         rdf:about="">
        <dc:format>image/svg+xml</dc:format>
        <dc:type
           rdf:resource="http://purl.org/dc/dcmitype/StillImage" />
        <dc:title></dc:title>
      </cc:Work>
    </rdf:RDF>
  </metadata>
  <defs
     id="defs6" />
  <sodipodi:namedview
     pagecolor="#ffffff"
     bordercolor="#666666"
     borderopacity="1"
     objecttolerance="10"
     gridtolerance="10"
     guidetolerance="10"
     inkscape:pageopacity="0"
     inkscape:pageshadow="2"
     inkscape:window-width="1366"
     inkscape:window-height="707"
     id="namedview4"
     showgrid="false"
     inkscape:zoom="2.3046875"
     inkscape:cx="-14.967488"
     inkscape:cy="77.400853"
     inkscape:window-x="0"
     inkscape:window-y="0"
     inkscape:window-maximized="1"
     inkscape:current-layer="svg2" />
  <g
     id="Controlling"
     transform="matrix(0.27391328,0,0,0.26327031,1.3821795,-0.84637817)">
    <g
       id="Correction_1_">
      <g
         id="Active_4_">
        <g
           id="Active1_2_">
          <path
             id="path4506"
             d="m 197.324,261.042 c 6.101,2.22 11.703,5.475 16.605,9.564 l 23.031,-9.485 15.479,26.81 -19.284,15.983 c 0.564,3.203 0.85,6.471 0.85,9.817 0,2.962 -0.221,5.859 -0.67,8.685 l 20.065,15.462 -15.475,26.803 -23.138,-8.568 c -4.805,4.193 -10.345,7.565 -16.387,9.909 l -3.265,24.473 H 164.17 l -4.098,-24.076 c -6.097,-2.201 -11.712,-5.462 -16.611,-9.564 l -23.037,9.486 -15.472,-26.803 19.29,-15.996 c -0.56,-3.184 -0.859,-6.465 -0.859,-9.811 0,-2.962 0.231,-5.859 0.674,-8.698 l -20.062,-15.443 15.476,-26.81 23.125,8.567 c 4.814,-4.192 10.355,-7.565 16.406,-9.895 l 3.248,-24.473 h 30.967 z"
             inkscape:connector-curvature="0"
             style="clip-rule:evenodd;fill:#f05161;fill-rule:evenodd" />
          <path
             id="path4508"
             d="m 178.685,353.965 c 22.178,0 40.264,-18.073 40.264,-40.234 0,-22.174 -18.086,-40.234 -40.264,-40.234 -22.158,0 -40.247,18.06 -40.247,40.234 0,22.161 18.089,40.234 40.247,40.234 z"
             inkscape:connector-curvature="0"
             style="clip-rule:evenodd;opacity:0.5;fill-rule:evenodd" />
          <path
             id="path4510"
             d="m 178.695,340.417 c 14.707,0 26.696,-11.992 26.696,-26.686 0,-14.7 -11.989,-26.68 -26.696,-26.68 -14.697,0 -26.686,11.979 -26.686,26.68 0,14.694 11.988,26.686 26.686,26.686 z"
             inkscape:connector-curvature="0"
             style="clip-rule:evenodd;opacity:0.5;fill:#ffffff;fill-rule:evenodd" />
        </g>
        <g
           id="Active_5_">
          <path
             id="path4513"
             d="m 252.897,32.083 c 9.619,0.345 18.994,2.396 27.767,5.938 l 28.174,-23.854 34.014,30.774 -19.925,31.322 c 2.239,4.252 4.147,8.73 5.664,13.457 1.344,4.167 2.344,8.366 3.004,12.565 l 35.322,12.663 -9.642,44.85 -36.526,-1.576 c -4.876,8.112 -11.156,15.384 -18.61,21.419 l 6.511,36.009 -43.67,14.07 -16.729,-32.09 c -9.6,-0.332 -18.997,-2.376 -27.773,-5.931 l -28.17,23.854 -34.027,-30.775 19.945,-31.328 c -2.24,-4.238 -4.147,-8.724 -5.671,-13.444 -1.345,-4.187 -2.331,-8.379 -3.005,-12.578 l -35.319,-12.663 9.645,-44.844 36.53,1.569 c 4.866,-8.105 11.146,-15.378 18.607,-21.406 L 192.493,14.068 236.162,0 Z"
             inkscape:connector-curvature="0"
             style="clip-rule:evenodd;fill:#fdb940;fill-rule:evenodd" />
          <path
             id="path4515"
             d="m 250.564,179.74 c 35.752,0 64.909,-29.16 64.909,-64.883 0,-35.742 -29.157,-64.87 -64.909,-64.87 -35.736,0 -64.89,29.127 -64.89,64.87 0,35.723 29.154,64.883 64.89,64.883 z"
             inkscape:connector-curvature="0"
             style="clip-rule:evenodd;opacity:0.5;fill-rule:evenodd" />
          <path
             id="path4517"
             d="m 262.699,152.5 c 20.752,-6.686 32.217,-29.049 25.534,-49.778 -6.68,-20.736 -29.049,-32.181 -49.788,-25.502 -20.732,6.686 -32.204,29.037 -25.518,49.779 6.676,20.729 29.043,32.181 49.772,25.501 z"
             inkscape:connector-curvature="0"
             style="clip-rule:evenodd;opacity:0.5;fill:#ffffff;fill-rule:evenodd" />
        </g>
      </g>
      <g
         id="Active_1_">
        <g
           id="Active1_1_">
          <path
             id="path4521"
             d="m 71.351,213.952 c 2.49,-1.055 5.121,-1.647 7.773,-1.791 l 4.326,-9.408 12.308,3.783 -1.354,10.332 c 1.074,0.82 2.087,1.738 3.037,2.76 0.834,0.892 1.592,1.843 2.256,2.832 l 10.482,-0.963 2.877,12.545 -9.482,3.933 c -0.276,2.643 -1.012,5.234 -2.19,7.656 l 5.931,8.385 -9.434,8.756 -8.06,-6.172 c -2.484,1.061 -5.117,1.647 -7.771,1.784 l -4.333,9.407 -12.305,-3.789 1.354,-10.332 c -1.071,-0.807 -2.09,-1.732 -3.037,-2.747 -0.836,-0.905 -1.588,-1.849 -2.259,-2.839 l -10.485,0.977 -2.864,-12.552 9.473,-3.939 c 0.276,-2.637 1.012,-5.234 2.19,-7.656 l -5.934,-8.379 9.443,-8.756 z"
             inkscape:connector-curvature="0"
             style="clip-rule:evenodd;fill:#e74c3c;fill-rule:evenodd" />
          <path
             id="path4523"
             d="m 91.97,247.539 c 6.754,-6.276 7.151,-16.901 0.882,-23.659 -6.272,-6.751 -16.897,-7.142 -23.655,-0.859 -6.751,6.263 -7.152,16.888 -0.882,23.646 6.275,6.751 16.9,7.148 23.655,0.872 z"
             inkscape:connector-curvature="0"
             style="clip-rule:evenodd;opacity:0.5;fill-rule:evenodd" />
          <path
             id="path4525"
             d="m 88.138,243.405 c 4.482,-4.16 4.736,-11.211 0.58,-15.684 -4.157,-4.479 -11.201,-4.74 -15.681,-0.58 -4.482,4.16 -4.743,11.205 -0.586,15.684 4.157,4.486 11.205,4.747 15.687,0.58 z"
             inkscape:connector-curvature="0"
             style="clip-rule:evenodd;opacity:0.5;fill:#ffffff;fill-rule:evenodd" />
        </g>
        <g
           id="Active_3_">
          <path
             id="path4528"
             d="m 23.5,128.451 c 3.027,-2.623 6.465,-4.642 10.143,-6.048 l 1.839,-15.247 19.072,-0.248 2.793,15.182 c 1.881,0.664 3.73,1.491 5.531,2.507 1.592,0.885 3.079,1.881 4.473,2.975 l 14.346,-6.139 9.752,16.406 -11.576,9.856 c 0.808,3.848 0.951,7.839 0.384,11.791 l 12.178,9.127 -9.326,16.641 -14.176,-5.045 c -3.018,2.624 -6.465,4.655 -10.144,6.048 l -1.836,15.247 -19.079,0.254 -2.787,-15.195 c -1.881,-0.657 -3.733,-1.484 -5.534,-2.493 -1.588,-0.892 -3.08,-1.895 -4.469,-2.976 l -14.352,6.133 -9.749,-16.399 11.575,-9.857 c -0.811,-3.854 -0.954,-7.845 -0.384,-11.797 L 0,140.052 9.323,123.405 Z"
             inkscape:connector-curvature="0"
             style="clip-rule:evenodd;fill:#42536c;fill-rule:evenodd" />
          <path
             id="path4530"
             d="m 64.567,174.108 c 10.901,-10.117 11.536,-27.259 1.422,-38.138 -10.114,-10.898 -27.24,-11.523 -38.131,-1.406 -10.892,10.111 -11.537,27.24 -1.423,38.131 10.115,10.886 27.25,11.524 38.132,1.413 z"
             inkscape:connector-curvature="0"
             style="clip-rule:evenodd;opacity:0.5;fill-rule:evenodd" />
          <path
             id="path4532"
             d="m 60.563,162.37 c 4.43,-7.91 1.595,-17.969 -6.306,-22.396 -7.903,-4.427 -17.956,-1.588 -22.386,6.322 -4.434,7.903 -1.602,17.956 6.305,22.389 7.898,4.427 17.964,1.582 22.387,-6.315 z"
             inkscape:connector-curvature="0"
             style="clip-rule:evenodd;opacity:0.5;fill:#ffffff;fill-rule:evenodd" />
        </g>
      </g>
    </g>
  </g>
</svg>
