<?xml version="1.0" encoding="UTF-8" standalone="no"?>
<!-- Generator: Adobe Illustrator 17.0.0, SVG Export Plug-In . SVG Version: 6.00 Build 0)  -->

<svg
   xmlns:dc="http://purl.org/dc/elements/1.1/"
   xmlns:cc="http://creativecommons.org/ns#"
   xmlns:rdf="http://www.w3.org/1999/02/22-rdf-syntax-ns#"
   xmlns:svg="http://www.w3.org/2000/svg"
   xmlns="http://www.w3.org/2000/svg"
   xmlns:sodipodi="http://sodipodi.sourceforge.net/DTD/sodipodi-0.dtd"
   xmlns:inkscape="http://www.inkscape.org/namespaces/inkscape"
   version="1.1"
   id="Camada_1"
   x="0px"
   y="0px"
   width="31"
   height="31"
   viewBox="0 0 30.999999 31.000002"
   enable-background="new 0 0 299.747 299.748"
   xml:space="preserve"
   sodipodi:docname="estrela.svg"
   inkscape:version="0.92.1 r15371"><metadata
     id="metadata102"><rdf:RDF><cc:Work
         rdf:about=""><dc:format>image/svg+xml</dc:format><dc:type
           rdf:resource="http://purl.org/dc/dcmitype/StillImage" /><dc:title></dc:title></cc:Work></rdf:RDF></metadata><defs
     id="defs100" /><sodipodi:namedview
     pagecolor="#ffffff"
     bordercolor="#666666"
     borderopacity="1"
     objecttolerance="10"
     gridtolerance="10"
     guidetolerance="10"
     inkscape:pageopacity="0"
     inkscape:pageshadow="2"
     inkscape:window-width="1366"
     inkscape:window-height="707"
     id="namedview98"
     showgrid="false"
     inkscape:zoom="6.2986245"
     inkscape:cx="35.291522"
     inkscape:cy="19.07895"
     inkscape:window-x="0"
     inkscape:window-y="0"
     inkscape:window-maximized="1"
     inkscape:current-layer="Camada_1" /><ellipse
     cx="15.500009"
     cy="15.500002"
     id="circle6"
     style="fill:#f2f2f2;stroke-width:0.54473877"
     rx="15.499993"
     ry="15.5" /><path
     style="fill:#cccccc;stroke-width:0.54473877"
     d="m 19.334409,4.018545 c 3.40734,0 6.555384,1.102552 9.112932,2.964469 C 25.676256,2.778175 20.913606,5.51e-4 15.499994,5.51e-4 6.9399717,5.51e-4 1.82212e-6,6.93998 1.82212e-6,15.500006 c 0,5.15323 2.51723717788,9.716507 6.38651537788,12.534986 -1.6113368,-2.444788 -2.5515556,-5.370581 -2.5515556,-8.517537 0,-8.559482 6.9394254,-15.49891 15.4994474,-15.49891 z"
     id="path8"
     inkscape:connector-curvature="0" /><g
     id="g85"
     transform="translate(0,-268.74799)" /><g
     id="g87"
     transform="translate(0,-268.74799)" /><g
     id="g89"
     transform="translate(0,-268.74799)" /><g
     id="g91"
     transform="translate(0,-268.74799)" /><g
     id="g93"
     transform="translate(0,-268.74799)" /><g
     id="g95"
     transform="translate(0,-268.74799)" /></svg>